<?xml version="1.0" encoding="UTF-8" standalone="no"?>
<!-- Created with Inkscape (http://www.inkscape.org/) -->
<svg
   xmlns:dc="http://purl.org/dc/elements/1.1/"
   xmlns:cc="http://web.resource.org/cc/"
   xmlns:rdf="http://www.w3.org/1999/02/22-rdf-syntax-ns#"
   xmlns:svg="http://www.w3.org/2000/svg"
   xmlns="http://www.w3.org/2000/svg"
   xmlns:sodipodi="http://inkscape.sourceforge.net/DTD/sodipodi-0.dtd"
   xmlns:inkscape="http://www.inkscape.org/namespaces/inkscape"
   width="100pt"
   height="100pt"
   id="svg2"
   sodipodi:version="0.32"
   inkscape:version="0.43"
   version="1.0"
   sodipodi:docbase="/home/wouter/Werk/SIM-PL/SIM-PL/v2/src/sim-pl/databinding"
   sodipodi:docname="Cables.svg">
  <defs
     id="defs4" />
  <sodipodi:namedview
     id="base"
     pagecolor="#ffffff"
     bordercolor="#666666"
     borderopacity="1.0"
     inkscape:pageopacity="0.0"
     inkscape:pageshadow="2"
     inkscape:zoom="2.8"
     inkscape:cx="84.893888"
     inkscape:cy="23.68185"
     inkscape:document-units="pt"
     inkscape:current-layer="layer1"
     inkscape:window-width="1447"
     inkscape:window-height="952"
     inkscape:window-x="424"
     inkscape:window-y="0" />
  <metadata
     id="metadata7">
    <rdf:RDF>
      <cc:Work
         rdf:about="">
        <dc:format>image/svg+xml</dc:format>
        <dc:type
           rdf:resource="http://purl.org/dc/dcmitype/StillImage" />
      </cc:Work>
    </rdf:RDF>
  </metadata>
  <g
     inkscape:label="Layer 1"
     inkscape:groupmode="layer"
     id="layer1">
    <path
       style="fill:none;fill-opacity:0.75;fill-rule:evenodd;stroke:#000000;stroke-width:3.31577516;stroke-linecap:butt;stroke-linejoin:miter;stroke-miterlimit:4;stroke-dasharray:none;stroke-opacity:1"
       d="M 37.112017,101.38156 L 76.58553,101.38156 L 76.58553,53.381766 L 110.37486,53.381766"
       id="path1309" />
    <path
       style="fill:none;fill-opacity:0.75;fill-rule:evenodd;stroke:#000000;stroke-width:3.31577516;stroke-linecap:butt;stroke-linejoin:miter;stroke-miterlimit:4;stroke-dasharray:none;stroke-opacity:1"
       d="M 27.406124,86.388993 L 66.87964,86.388993 L 66.87964,38.389205 L 100.66897,38.389205"
       id="path2184" />
    <path
       style="fill:none;fill-opacity:0.75;fill-rule:evenodd;stroke:#000000;stroke-width:3.31577516;stroke-linecap:butt;stroke-linejoin:miter;stroke-miterlimit:4;stroke-dasharray:none;stroke-opacity:1"
       d="M 18.207759,72.730809 L 57.681272,72.730809 L 57.681272,24.731018 L 91.470604,24.731018"
       id="path2190" />
    <path
       sodipodi:type="arc"
       style="opacity:1;fill:#13ed00;fill-opacity:1;fill-rule:evenodd;stroke:#000000;stroke-width:3.75;stroke-linecap:round;stroke-linejoin:round;stroke-miterlimit:4;stroke-dasharray:none;stroke-dashoffset:0;stroke-opacity:1"
       id="path2192"
       sodipodi:cx="77.14286"
       sodipodi:cy="59.285713"
       sodipodi:rx="11.071428"
       sodipodi:ry="11.071428"
       d="M 88.214289 59.285713 A 11.071428 11.071428 0 1 1  66.071432,59.285713 A 11.071428 11.071428 0 1 1  88.214289 59.285713 z"
       transform="matrix(0.884207,0,0,0.884207,-50.38624,21.15606)" />
    <path
       sodipodi:type="arc"
       style="opacity:1;fill:#13ed00;fill-opacity:1;fill-rule:evenodd;stroke:#000000;stroke-width:3.75;stroke-linecap:round;stroke-linejoin:round;stroke-miterlimit:4;stroke-dasharray:none;stroke-dashoffset:0;stroke-opacity:1"
       id="path2186"
       sodipodi:cx="77.14286"
       sodipodi:cy="59.285713"
       sodipodi:rx="11.071428"
       sodipodi:ry="11.071428"
       d="M 88.214289 59.285713 A 11.071428 11.071428 0 1 1  66.071432,59.285713 A 11.071428 11.071428 0 1 1  88.214289 59.285713 z"
       transform="matrix(0.884207,0,0,0.884207,-41.18784,34.81424)" />
    <path
       sodipodi:type="arc"
       style="opacity:1;fill:#13ed00;fill-opacity:1;fill-rule:evenodd;stroke:#000000;stroke-width:3.75;stroke-linecap:round;stroke-linejoin:round;stroke-miterlimit:4;stroke-dasharray:none;stroke-dashoffset:0;stroke-opacity:1"
       id="path1308"
       sodipodi:cx="77.14286"
       sodipodi:cy="59.285713"
       sodipodi:rx="11.071428"
       sodipodi:ry="11.071428"
       d="M 88.214289 59.285713 A 11.071428 11.071428 0 1 1  66.071432,59.285713 A 11.071428 11.071428 0 1 1  88.214289 59.285713 z"
       transform="matrix(0.884207,0,0,0.884207,-31.48198,49.8068)" />
    <path
       sodipodi:type="arc"
       style="opacity:1;fill:#fffc51;fill-opacity:1;fill-rule:evenodd;stroke:#000000;stroke-width:3.75;stroke-linecap:round;stroke-linejoin:round;stroke-miterlimit:4;stroke-dasharray:none;stroke-dashoffset:0;stroke-opacity:1"
       id="path2194"
       sodipodi:cx="77.14286"
       sodipodi:cy="59.285713"
       sodipodi:rx="11.071428"
       sodipodi:ry="11.071428"
       d="M 88.214289 59.285713 A 11.071428 11.071428 0 1 1  66.071432,59.285713 A 11.071428 11.071428 0 1 1  88.214289 59.285713 z"
       transform="matrix(0.884207,0,0,0.884207,22.14039,-27.9043)" />
    <path
       sodipodi:type="arc"
       style="opacity:1;fill:#fffc51;fill-opacity:1;fill-rule:evenodd;stroke:#000000;stroke-width:3.75;stroke-linecap:round;stroke-linejoin:round;stroke-miterlimit:4;stroke-dasharray:none;stroke-dashoffset:0;stroke-opacity:1"
       id="path2188"
       sodipodi:cx="77.14286"
       sodipodi:cy="59.285713"
       sodipodi:rx="11.071428"
       sodipodi:ry="11.071428"
       d="M 88.214289 59.285713 A 11.071428 11.071428 0 1 1  66.071432,59.285713 A 11.071428 11.071428 0 1 1  88.214289 59.285713 z"
       transform="matrix(0.884207,0,0,0.884207,31.33879,-14.24615)" />
    <path
       sodipodi:type="arc"
       style="opacity:1;fill:#fffc51;fill-opacity:1;fill-rule:evenodd;stroke:#000000;stroke-width:3.75;stroke-linecap:round;stroke-linejoin:round;stroke-miterlimit:4;stroke-dasharray:none;stroke-dashoffset:0;stroke-opacity:1"
       id="path3058"
       sodipodi:cx="77.14286"
       sodipodi:cy="59.285713"
       sodipodi:rx="11.071428"
       sodipodi:ry="11.071428"
       d="M 88.214289 59.285713 A 11.071428 11.071428 0 1 1  66.071432,59.285713 A 11.071428 11.071428 0 1 1  88.214289 59.285713 z"
       transform="matrix(0.884207,0,0,0.884207,41.04469,0.746443)" />
  </g>
</svg>
