<?xml version="1.0" encoding="UTF-8" standalone="no"?>
<!-- Created with Inkscape (http://www.inkscape.org/) -->
<svg
   xmlns:dc="http://purl.org/dc/elements/1.1/"
   xmlns:cc="http://web.resource.org/cc/"
   xmlns:rdf="http://www.w3.org/1999/02/22-rdf-syntax-ns#"
   xmlns:svg="http://www.w3.org/2000/svg"
   xmlns="http://www.w3.org/2000/svg"
   xmlns:sodipodi="http://inkscape.sourceforge.net/DTD/sodipodi-0.dtd"
   xmlns:inkscape="http://www.inkscape.org/namespaces/inkscape"
   width="100pt"
   height="100pt"
   id="svg2"
   sodipodi:version="0.32"
   inkscape:version="0.43"
   version="1.0"
   sodipodi:docbase="/home/wouter/Werk/SIM-PL/SIM-PL/v2/src/sim-pl/databinding"
   sodipodi:docname="Input.svg">
  <defs
     id="defs4" />
  <sodipodi:namedview
     id="base"
     pagecolor="#ffffff"
     bordercolor="#666666"
     borderopacity="1.0"
     inkscape:pageopacity="0.0"
     inkscape:pageshadow="2"
     inkscape:zoom="2.8"
     inkscape:cx="84.893888"
     inkscape:cy="117.60181"
     inkscape:document-units="pt"
     inkscape:current-layer="layer1"
     inkscape:window-width="1447"
     inkscape:window-height="952"
     inkscape:window-x="424"
     inkscape:window-y="0" />
  <metadata
     id="metadata7">
    <rdf:RDF>
      <cc:Work
         rdf:about="">
        <dc:format>image/svg+xml</dc:format>
        <dc:type
           rdf:resource="http://purl.org/dc/dcmitype/StillImage" />
      </cc:Work>
    </rdf:RDF>
  </metadata>
  <g
     inkscape:label="Layer 1"
     inkscape:groupmode="layer"
     id="layer1">
    <rect
       style="opacity:1;fill:#9debee;fill-opacity:1;fill-rule:evenodd;stroke:#230000;stroke-width:3.75;stroke-linecap:round;stroke-linejoin:round;stroke-miterlimit:4;stroke-dasharray:none;stroke-dashoffset:0;stroke-opacity:1"
       id="rect1306"
       width="75.586472"
       height="83.706085"
       x="29.857193"
       y="14.932671"
       rx="13.571428"
       ry="13.571428" />
    <path
       sodipodi:type="arc"
       style="opacity:1;fill:#feff41;fill-opacity:1;fill-rule:evenodd;stroke:#000000;stroke-width:3.75;stroke-linecap:round;stroke-linejoin:round;stroke-miterlimit:4;stroke-dasharray:none;stroke-dashoffset:0;stroke-opacity:1"
       id="path1308"
       sodipodi:cx="77.14286"
       sodipodi:cy="59.285713"
       sodipodi:rx="11.071428"
       sodipodi:ry="11.071428"
       d="M 88.214289 59.285713 A 11.071428 11.071428 0 1 1  66.071432,59.285713 A 11.071428 11.071428 0 1 1  88.214289 59.285713 z"
       transform="translate(-47.5,-3.571429)" />
  </g>
</svg>
